1	1	NULL	pubmed	21899498
2	1	NULL	pubmed	24481336
3	1	NULL	pubmed	21892153
4	1	NULL	pubmed	1111098
5	1	NULL	pubmed	22094008
6	1	NULL	pubmed	24311120
7	1	NULL	pubmed	21106903
8	1	NULL	pubmed	11420731
9	1	NULL	pubmed	22249343
10	1	NULL	pubmed	24880342
11	1	NULL	pubmed	15659551
12	1	NULL	pubmed	22313030
13	1	NULL	pubmed	24432853
14	1	NULL	pubmed	25083871
15	1	NULL	pubmed	11923494
16	1	NULL	pubmed	18670629
17	1	NULL	pubmed	22988502
18	1	NULL	pubmed	22094008
19	1	NULL	pubmed	23473601
20	1	NULL	pubmed	24121437
